{
    "iisSettings": {
        "windowsAuthentication": false,
        "anonymousAuthentication": true,
        "iisExpress": {
            "applicationUrl": "http://localhost:44395",
            "sslPort": 44305
        }
    },
    "profiles": {
        "IIS Express": {
            "commandName": "IISExpress",
            "launchBrowser": true,
            "environmentVariables": {
                "ASPNETCORE_ENVIRONMENT": "Development"
            }
        },
        "WebAPI": {
            "commandName": "Project",
            "launchBrowser": true,
            "applicationUrl": "https://localhost:5001;http://localhost:5000",
            "environmentVariables": {
                "ASPNETCORE_ENVIRONMENT": "Development"
            }
        }
    }
}
