{
  "type": "service_account",
  "project_id": "itend001",
  "private_key_id": "227233f7c34b51556c2cd2b9365c48e87ded5d15",
  "private_key": "-----BEGIN PRIVATE KEY-----\nMIIEvgIBADANBgkqhkiG9w0BAQEFAASCBKgwggSkAgEAAoIBAQDYKBUVxL4Iv6LY\nKyXQHQ04/bjWP1MGgglSfmz9T4gJNovP15FV3WQia3bHeP9+jhVmaBCzcSJYM4jj\nfv6NBhU5NFX4372+yLPz8zIWrkaRig0z9mEHuZhkrlsCZGgDhMfu6VWshRY6atzD\njTqFBsOa56yRP/qEYxnTeCLBMMBHh5wewxyU4LTWORnlQpabP+/QmG2cHnYHiB4n\nHjJ7LGNCsMHVxs6iDG+x10317+hgP2AzHuZJvQr+8+o3cB71RUhbooZIrty9vvmy\nX8+rueomyLS6oD5MYr92dTm6ZJ52kJSklpM9XaxnAngX7ka/RbPqcvdgAU51+r/G\nqx0PItVtAgMBAAECggEADJD3+NYBPjz12J9ZiWnG9QM7FamEyCITLKqQ54ESJYb4\nRdMAbf967M1WkG4mXFMiR1vRbL0tA/erA57Eaapq3XJ/dQJ843SDkbEXvl3PWHKw\nJc8zAOH3TBMe01rG+T1k6izCgE8UZb0ErJGvT0B/aqgBTkhr5fpk6/hV/Ok6pG3Q\naxRj87sONiCVqsgKWq9SMVKTrhrcXebGG9qyDXUA5n35JDxU4aBL46xxVWtdlvtx\nsFH0gasT5H30N9Am7GsMeEM5nTcVzVxW5TGsYpI+SdskACEofHotDM35AV+15sIS\ntSeLFfD5bc5Xc8JcA5NcMxKXzw772xplx8qav5uXwQKBgQD69XqK2NtYhLLrL8mn\nJkAWQjL0aU61eYoA6QuWE9MFmvp2/j1LD0PZT1edxi8tVTEe/oJlRx+vsjqRfG5B\nKQvbu8D6eCch0uDfOxmChLMDoen4/pAmiV02xShT8gtAoRxipCeF6TDQGI8qDm6a\nXErW1BVaI2ieX6yyQ69XcZIgWQKBgQDcf6M1Z7HpnDAOf9+HIH6DpGIuTR1Cc7YV\nilkrG8E4VJrEtqYQAbR2Z1BzuS4M/lqsdYrYHadUnAU5tCD+aiBej4G9PO4yOENG\n1/4IECO8LoAAuOTqGJRH2p8nIwJ4JDRDysxMQTkhuum/C+4m0GjwRmvvGXgbDOGL\n0bTIBSbbNQKBgQDCLquxP/cJWTRwErv/3/L6xiJTSCCk/vQvnCNg7tn7nl1rMXIP\n4DHptiDfbfgXJbIqf1g6MXxtIIV9CUDunmoUjgTWSZ5N57QkRsCIY1F44BIAnki/\n6M39kTSRL9pRGdiy4r3KOhOREU/FhQFD42HtNJGI+5j54qHoFcNY8AHXkQKBgErK\nDDywCFt5e59fZhz6O49BMYAM7fC9OLSDsYz6pAYMRFaWsSrauTA0CMjHtcP4fh7i\n245EOJ5tMSSKYWqJ6qLIQDREt3JXPRKJboOjnctVZltYW2S/o4Pftn3a1RqVBRk9\nbyAqO0uij2gajtOhewaMjE2UMPXT36jCH3R8stpFAoGBAKITtpY0JAb7PW33tb5v\n+aIIha9qUxR9SwlC+Dq566qjRnRsu2SwZe0gsdtIY4xkRUufXFhMk0GyGtQr99nr\n+OiDES+wJkLkDp2hJvdU/E/RF3h9+ChdK0LyYUURXbh6utr2r0VU6dVfEXLO3n3I\nHzPuFyltWwAsmrMOc4fB/Lax\n-----END PRIVATE KEY-----\n",
  "client_email": "itend-626@itend001.iam.gserviceaccount.com",
  "client_id": "105134187541338864223",
  "auth_uri": "https://accounts.google.com/o/oauth2/auth",
  "token_uri": "https://oauth2.googleapis.com/token",
  "auth_provider_x509_cert_url": "https://www.googleapis.com/oauth2/v1/certs",
  "client_x509_cert_url": "https://www.googleapis.com/robot/v1/metadata/x509/itend-626%40itend001.iam.gserviceaccount.com"
}
