﻿{
"Id":3,
"Year":0,
"Month":0,
"Working":[
	{"Start":"2020-05-01T08:00:00","LunchStart":"2020-05-01T12:00:00","LunchEnd":"2020-05-01T13:00:00","End":"2020-05-01T17:00:00"},
	{"Start":"2020-05-04T08:00:00","LunchStart":"2020-05-04T12:00:00","LunchEnd":"2020-05-04T13:00:00","End":"2020-05-04T17:00:00"},
	{"Start":"2020-05-05T08:00:00","LunchStart":"2020-05-05T12:00:00","LunchEnd":"2020-05-05T13:00:00","End":"2020-05-05T17:00:00"},
	{"Start":"2020-05-06T08:00:00","LunchStart":"2020-05-06T12:00:00","LunchEnd":"2020-05-06T13:00:00","End":"2020-05-06T17:00:00"},
	{"Start":"2020-05-07T08:00:00","LunchStart":"2020-05-07T12:00:00","LunchEnd":"2020-05-07T13:00:00","End":"2020-05-07T17:00:00"},
	{"Start":"2020-05-08T08:00:00","LunchStart":"2020-05-08T12:00:00","LunchEnd":"2020-05-08T13:00:00","End":"2020-05-08T17:00:00"},
	{"Start":"2020-05-11T08:00:00","LunchStart":"2020-05-11T12:00:00","LunchEnd":"2020-05-11T13:00:00","End":"2020-05-11T17:00:00"},
	{"Start":"2020-05-12T08:00:00","LunchStart":"2020-05-12T12:00:00","LunchEnd":"2020-05-12T13:00:00","End":"2020-05-12T17:00:00"},
	{"Start":"2020-05-13T08:00:00","LunchStart":"2020-05-13T12:00:00","LunchEnd":"2020-05-13T13:00:00","End":"2020-05-13T17:00:00"},
	{"Start":"2020-05-14T08:00:00","LunchStart":"2020-05-14T12:00:00","LunchEnd":"2020-05-14T13:00:00","End":"2020-05-14T17:00:00"},
	{"Start":"2020-05-15T08:00:00","LunchStart":"2020-05-15T12:00:00","LunchEnd":"2020-05-15T13:00:00","End":"2020-05-15T17:00:00"},
	{"Start":"2020-05-18T08:00:00","LunchStart":"2020-05-18T12:00:00","LunchEnd":"2020-05-18T13:00:00","End":"2020-05-18T17:00:00"},
	{"Start":"2020-05-19T08:00:00","LunchStart":"2020-05-19T12:00:00","LunchEnd":"2020-05-19T13:00:00","End":"2020-05-19T17:00:00"},
	{"Start":"2020-05-20T08:00:00","LunchStart":"2020-05-20T12:00:00","LunchEnd":"2020-05-20T13:00:00","End":"2020-05-20T17:00:00"},
	{"Start":"2020-05-21T08:00:00","LunchStart":"2020-05-21T12:00:00","LunchEnd":"2020-05-21T13:00:00","End":"2020-05-21T17:00:00"},
	{"Start":"2020-05-22T08:00:00","LunchStart":"2020-05-22T12:00:00","LunchEnd":"2020-05-22T13:00:00","End":"2020-05-22T17:00:00"},
	{"Start":"2020-05-25T08:00:00","LunchStart":"2020-05-25T12:00:00","LunchEnd":"2020-05-25T13:00:00","End":"2020-05-25T17:00:00"},
	{"Start":"2020-05-26T08:00:00","LunchStart":"2020-05-26T12:00:00","LunchEnd":"2020-05-26T13:00:00","End":"2020-05-26T17:00:00"},
	{"Start":"2020-05-27T08:00:00","LunchStart":"2020-05-27T12:00:00","LunchEnd":"2020-05-27T13:00:00","End":"2020-05-27T17:00:00"},
	{"Start":"2020-05-28T08:00:00","LunchStart":"2020-05-28T12:00:00","LunchEnd":"2020-05-28T13:00:00","End":"2020-05-28T17:00:00"},
	{"Start":"2020-05-29T08:00:00","LunchStart":"2020-05-29T12:00:00","LunchEnd":"2020-05-29T13:00:00","End":"2020-05-29T17:00:00"}],
	"Trip":[{"Period":{"Start":"2020-05-04T13:00:00","End":"2020-05-08T10:00:00"},"ListPerDiems":[]}],
	"Overtime":[{"Start":"2020-05-23T10:00:00","End":"2020-05-23T14:00:00"}],
	"Sickness":[],
	"Unpaid":[],
	"Sickdays":[],
	"Vacation":[],
	"Oncall":[{"Start":"2020-05-04T09:00:00","End":"2020-05-08T09:00:00"}]
}

<BlazorILLink>
          ILLinkPath="$(ComponentsWebAssemblyLinkerPath)"
          AssemblyPaths="@(_BlazorAssemblyToLink)"
          RootAssemblyNames="@(_BlazorLinkerRoot)"
          RootDescriptorFiles="@(BlazorLinkerDescriptor)"
          OutputDirectory="$(_BlazorIntermediateLinkerOutputPath)"
          ExtraArgs="$(_BlazorLinkerAdditionalOptions)"
          ToolExe="$(_DotNetHostFileName)"
          ToolPath="$(_DotNetHostDirectory)" />
      </BlazorILLink>

	  <PropertyGroup>
    <TargetFramework>netstandard2.1</TargetFramework>
    <RazorLangVersion>3.0</RazorLangVersion>
    <OutputType>Exe</OutputType>
    <ApplicationIcon>wwwroot\favicon.ico</ApplicationIcon>
  </PropertyGroup>
